EESchema Schematic File Version 4
LIBS:Interrogizer-cache
EELAYER 26 0
EELAYER END
$Descr A3 16535 11693
encoding utf-8
Sheet 1 2
Title ""
Date ""
Rev ""
Comp ""
Comment1 ""
Comment2 ""
Comment3 ""
Comment4 ""
$EndDescr
$Comp
L power:+5V #PWR09
U 1 1 5E188C19
P 3950 3300
F 0 "#PWR09" H 3950 3150 50  0001 C CNN
F 1 "+5V" H 3965 3473 50  0000 C CNN
F 2 "" H 3950 3300 50  0001 C CNN
F 3 "" H 3950 3300 50  0001 C CNN
	1    3950 3300
	1    0    0    -1  
$EndComp
$Comp
L Device:Ferrite_Bead_Small FB1
U 1 1 5E188D95
P 3800 4200
F 0 "FB1" V 4037 4200 50  0000 C CNN
F 1 "Ferrite_Bead" V 3946 4200 50  0000 C CNN
F 2 "Inductor_SMD:L_0805_2012Metric" V 3730 4200 50  0001 C CNN
F 3 "~" H 3800 4200 50  0001 C CNN
	1    3800 4200
	0    -1   -1   0   
$EndComp
$Comp
L Connector_Generic:Conn_02x10_Odd_Even J4
U 1 1 5E189105
P 12850 4450
F 0 "J4" H 12900 5067 50  0000 C CNN
F 1 "Output Connector" H 12900 4976 50  0000 C CNN
F 2 "Connector_IDC:IDC-Header_2x10_P2.54mm_Horizontal" H 12850 4450 50  0001 C CNN
F 3 "~" H 12850 4450 50  0001 C CNN
	1    12850 4450
	1    0    0    -1  
$EndComp
$Comp
L Power_Protection:SRV05-4 U1
U 1 1 5E1896F4
P 3700 5450
F 0 "U1" H 3950 4950 50  0000 C CNN
F 1 "SRV05-4" H 3400 4950 50  0000 C CNN
F 2 "rounded-pads-footprints:SOT-23-6" H 4400 5000 50  0001 C CNN
F 3 "http://www.onsemi.com/pub/Collateral/SRV05-4-D.PDF" H 3700 5450 50  0001 C CNN
	1    3700 5450
	1    0    0    -1  
$EndComp
Wire Wire Line
	3200 5350 3200 4400
Wire Wire Line
	3200 5550 3000 5550
$Comp
L power:GND #PWR06
U 1 1 5E1898E4
P 3700 6050
F 0 "#PWR06" H 3700 5800 50  0001 C CNN
F 1 "GND" H 3705 5877 50  0000 C CNN
F 2 "" H 3700 6050 50  0001 C CNN
F 3 "" H 3700 6050 50  0001 C CNN
	1    3700 6050
	1    0    0    -1  
$EndComp
Wire Wire Line
	3700 6050 3700 5950
NoConn ~ 4200 5350
NoConn ~ 4200 5550
Text Label 6050 4400 0    50   ~ 0
USB_D+
Text Label 6050 4500 0    50   ~ 0
USB_D-
Text Label 2675 4200 0    50   ~ 0
VBUS
$Comp
L Regulator_Linear:AMS1117-3.3 U2
U 1 1 5E18A1BF
P 5800 3400
F 0 "U2" H 5800 3642 50  0000 C CNN
F 1 "AMS1117-3.3" H 5800 3551 50  0000 C CNN
F 2 "rounded-pads-footprints:SOT-223-3_TabPin2" H 5800 3600 50  0001 C CNN
F 3 "http://www.advanced-monolithic.com/pdf/ds1117.pdf" H 5900 3150 50  0001 C CNN
	1    5800 3400
	1    0    0    -1  
$EndComp
$Comp
L power:GND #PWR011
U 1 1 5E18A2D4
P 5800 4050
F 0 "#PWR011" H 5800 3800 50  0001 C CNN
F 1 "GND" H 5805 3877 50  0000 C CNN
F 2 "" H 5800 4050 50  0001 C CNN
F 3 "" H 5800 4050 50  0001 C CNN
	1    5800 4050
	1    0    0    -1  
$EndComp
Connection ~ 3950 3400
Wire Wire Line
	7650 4000 7900 4000
Wire Wire Line
	7650 4000 7650 4100
Wire Wire Line
	7650 4100 7900 4100
Connection ~ 7650 4000
Wire Wire Line
	7650 3400 7650 4000
Wire Wire Line
	3950 3400 3950 4200
$Comp
L power:+3.3V #PWR017
U 1 1 5E18C43E
P 7650 3300
F 0 "#PWR017" H 7650 3150 50  0001 C CNN
F 1 "+3.3V" H 7665 3473 50  0000 C CNN
F 2 "" H 7650 3300 50  0001 C CNN
F 3 "" H 7650 3300 50  0001 C CNN
	1    7650 3300
	1    0    0    -1  
$EndComp
Wire Wire Line
	3950 3300 3950 3400
Wire Wire Line
	7650 3300 7650 3400
$Comp
L power:GND #PWR018
U 1 1 5E18D76F
P 7650 4200
F 0 "#PWR018" H 7650 3950 50  0001 C CNN
F 1 "GND" H 7650 4050 50  0000 C CNN
F 2 "" H 7650 4200 50  0001 C CNN
F 3 "" H 7650 4200 50  0001 C CNN
	1    7650 4200
	1    0    0    -1  
$EndComp
Wire Wire Line
	7650 4200 7900 4200
$Comp
L power:GND #PWR01
U 1 1 5E18E15D
P 2250 4900
F 0 "#PWR01" H 2250 4650 50  0001 C CNN
F 1 "GND" H 2255 4727 50  0000 C CNN
F 2 "" H 2250 4900 50  0001 C CNN
F 3 "" H 2250 4900 50  0001 C CNN
	1    2250 4900
	1    0    0    -1  
$EndComp
Wire Wire Line
	2200 4800 2200 4850
Wire Wire Line
	2200 4850 2250 4850
Wire Wire Line
	2300 4850 2300 4800
Wire Wire Line
	2250 4850 2250 4900
Connection ~ 2250 4850
Wire Wire Line
	2250 4850 2300 4850
Wire Wire Line
	3700 4850 3700 4950
$Comp
L Power_Protection:SRV05-4 U5
U 1 1 5E192B84
P 13600 6200
F 0 "U5" H 13850 5700 50  0000 C CNN
F 1 "SRV05-4" H 13300 5700 50  0000 C CNN
F 2 "rounded-pads-footprints:SOT-23-6" H 14300 5750 50  0001 C CNN
F 3 "http://www.onsemi.com/pub/Collateral/SRV05-4-D.PDF" H 13600 6200 50  0001 C CNN
	1    13600 6200
	1    0    0    -1  
$EndComp
$Comp
L power:GND #PWR027
U 1 1 5E192B90
P 13600 6800
F 0 "#PWR027" H 13600 6550 50  0001 C CNN
F 1 "GND" H 13605 6627 50  0000 C CNN
F 2 "" H 13600 6800 50  0001 C CNN
F 3 "" H 13600 6800 50  0001 C CNN
	1    13600 6800
	1    0    0    -1  
$EndComp
Wire Wire Line
	13600 6800 13600 6700
Wire Wire Line
	13600 5700 13600 5600
$Comp
L Power_Protection:SRV05-4 U3
U 1 1 5E192B98
P 11850 6200
F 0 "U3" H 12100 5700 50  0000 C CNN
F 1 "SRV05-4" H 11550 5700 50  0000 C CNN
F 2 "rounded-pads-footprints:SOT-23-6" H 12550 5750 50  0001 C CNN
F 3 "http://www.onsemi.com/pub/Collateral/SRV05-4-D.PDF" H 11850 6200 50  0001 C CNN
	1    11850 6200
	1    0    0    -1  
$EndComp
$Comp
L power:GND #PWR020
U 1 1 5E192BA4
P 11850 6800
F 0 "#PWR020" H 11850 6550 50  0001 C CNN
F 1 "GND" H 11855 6627 50  0000 C CNN
F 2 "" H 11850 6800 50  0001 C CNN
F 3 "" H 11850 6800 50  0001 C CNN
	1    11850 6800
	1    0    0    -1  
$EndComp
Wire Wire Line
	11850 6800 11850 6700
Wire Wire Line
	11850 5700 11850 5600
Text Label 10050 4900 0    50   ~ 0
PA0
Text Label 10050 5000 0    50   ~ 0
PA1
Text Label 10050 5100 0    50   ~ 0
PA2
Text Label 10050 5200 0    50   ~ 0
PA3
Text Label 10050 5300 0    50   ~ 0
PA4
Text Label 10050 5400 0    50   ~ 0
PA5
Text Label 10050 5500 0    50   ~ 0
PA6
Text Label 10050 5600 0    50   ~ 0
PA7
Text Label 11950 4650 2    50   ~ 0
PA0
Text Label 13850 4650 0    50   ~ 0
PA1
Text Label 11950 4750 2    50   ~ 0
PA2
Text Label 13850 4750 0    50   ~ 0
PA3
Text Label 11950 4850 2    50   ~ 0
PA4
Text Label 13850 4850 0    50   ~ 0
PA5
Text Label 11950 4950 2    50   ~ 0
PA6
Text Label 13850 4950 0    50   ~ 0
PA7
Wire Wire Line
	9700 4900 10050 4900
Wire Wire Line
	10050 5000 9700 5000
Wire Wire Line
	10050 5100 9700 5100
Wire Wire Line
	10050 5200 9700 5200
Wire Wire Line
	10050 5300 9700 5300
Wire Wire Line
	10050 5400 9700 5400
Wire Wire Line
	10050 5500 9700 5500
Wire Wire Line
	10050 5600 9700 5600
Text Label 10050 3950 0    50   ~ 0
PB8
Text Label 10050 4050 0    50   ~ 0
PB9
Text Label 10050 4150 0    50   ~ 0
PB10
Text Label 10050 4250 0    50   ~ 0
PB11
Text Label 10050 4350 0    50   ~ 0
PB12
Text Label 10050 4450 0    50   ~ 0
PB13
Text Label 10050 4550 0    50   ~ 0
PB14
Text Label 10050 4650 0    50   ~ 0
PB15
Wire Wire Line
	10050 4650 9700 4650
Wire Wire Line
	10050 4550 9700 4550
Wire Wire Line
	10050 4450 9700 4450
Wire Wire Line
	10050 4350 9700 4350
Wire Wire Line
	10050 4250 9700 4250
Wire Wire Line
	10050 4150 9700 4150
Wire Wire Line
	10050 4050 9700 4050
Wire Wire Line
	10050 3950 9700 3950
Text Label 11950 4250 2    50   ~ 0
PB8
Text Label 13850 4250 0    50   ~ 0
PB9
Text Label 11950 4350 2    50   ~ 0
PB10
Text Label 13850 4350 0    50   ~ 0
PB11
Text Label 11950 4450 2    50   ~ 0
PB12
Text Label 13850 4450 0    50   ~ 0
PB13
Text Label 11950 4550 2    50   ~ 0
PB14
Text Label 13850 4550 0    50   ~ 0
PB15
Wire Wire Line
	11950 4250 12650 4250
Wire Wire Line
	11950 4350 12650 4350
Wire Wire Line
	11950 4450 12650 4450
Wire Wire Line
	11950 4550 12650 4550
Wire Wire Line
	11950 4650 12650 4650
Wire Wire Line
	11950 4750 12650 4750
Wire Wire Line
	11950 4850 12650 4850
Wire Wire Line
	11950 4950 12650 4950
Wire Wire Line
	13150 4950 13850 4950
Wire Wire Line
	13150 4850 13850 4850
Wire Wire Line
	13150 4750 13850 4750
Wire Wire Line
	13150 4650 13850 4650
Wire Wire Line
	13150 4550 13850 4550
Wire Wire Line
	13150 4450 13850 4450
Wire Wire Line
	13150 4350 13850 4350
Wire Wire Line
	13150 4250 13850 4250
Text Label 14200 6100 0    50   ~ 0
PA1
Text Label 13000 6300 2    50   ~ 0
PA3
Text Label 12450 6100 0    50   ~ 0
PA5
Text Label 11250 6300 2    50   ~ 0
PA7
Wire Wire Line
	14100 6100 14200 6100
Wire Wire Line
	14200 6300 14100 6300
Wire Wire Line
	13000 6300 13100 6300
Wire Wire Line
	13100 6100 13000 6100
Text Label 12450 6300 0    50   ~ 0
PA4
Text Label 11250 6100 2    50   ~ 0
PA6
Text Label 14200 6300 0    50   ~ 0
PA0
Text Label 13000 6100 2    50   ~ 0
PA2
Wire Wire Line
	12350 6300 12450 6300
Wire Wire Line
	12450 6100 12350 6100
Wire Wire Line
	11250 6100 11350 6100
Wire Wire Line
	11350 6300 11250 6300
$Comp
L Power_Protection:SRV05-4 U6
U 1 1 5E21E34D
P 13650 2800
F 0 "U6" H 13900 2300 50  0000 C CNN
F 1 "SRV05-4" H 13350 2300 50  0000 C CNN
F 2 "rounded-pads-footprints:SOT-23-6" H 14350 2350 50  0001 C CNN
F 3 "http://www.onsemi.com/pub/Collateral/SRV05-4-D.PDF" H 13650 2800 50  0001 C CNN
	1    13650 2800
	1    0    0    -1  
$EndComp
$Comp
L power:GND #PWR029
U 1 1 5E21E359
P 13650 3400
F 0 "#PWR029" H 13650 3150 50  0001 C CNN
F 1 "GND" H 13655 3227 50  0000 C CNN
F 2 "" H 13650 3400 50  0001 C CNN
F 3 "" H 13650 3400 50  0001 C CNN
	1    13650 3400
	1    0    0    -1  
$EndComp
Wire Wire Line
	13650 3400 13650 3300
Wire Wire Line
	13650 2300 13650 2200
$Comp
L Power_Protection:SRV05-4 U4
U 1 1 5E21E361
P 11900 2800
F 0 "U4" H 12150 2300 50  0000 C CNN
F 1 "SRV05-4" H 11600 2300 50  0000 C CNN
F 2 "rounded-pads-footprints:SOT-23-6" H 12600 2350 50  0001 C CNN
F 3 "http://www.onsemi.com/pub/Collateral/SRV05-4-D.PDF" H 11900 2800 50  0001 C CNN
	1    11900 2800
	1    0    0    -1  
$EndComp
$Comp
L power:GND #PWR022
U 1 1 5E21E36D
P 11900 3400
F 0 "#PWR022" H 11900 3150 50  0001 C CNN
F 1 "GND" H 11905 3227 50  0000 C CNN
F 2 "" H 11900 3400 50  0001 C CNN
F 3 "" H 11900 3400 50  0001 C CNN
	1    11900 3400
	1    0    0    -1  
$EndComp
Wire Wire Line
	11900 3400 11900 3300
Wire Wire Line
	11900 2300 11900 2200
Wire Wire Line
	14150 2700 14250 2700
Wire Wire Line
	14250 2900 14150 2900
Wire Wire Line
	13050 2900 13150 2900
Wire Wire Line
	13150 2700 13050 2700
Wire Wire Line
	12400 2900 12500 2900
Wire Wire Line
	12500 2700 12400 2700
Wire Wire Line
	11300 2700 11400 2700
Wire Wire Line
	11400 2900 11300 2900
Text Label 14250 2700 0    50   ~ 0
PB13
Text Label 13050 2900 2    50   ~ 0
PB15
Text Label 12500 2700 0    50   ~ 0
PB9
Text Label 11300 2900 2    50   ~ 0
PB11
Text Label 14250 2900 0    50   ~ 0
PB12
Text Label 13050 2700 2    50   ~ 0
PB14
Text Label 12500 2900 0    50   ~ 0
PB8
Text Label 11300 2700 2    50   ~ 0
PB10
$Comp
L power:GND #PWR024
U 1 1 5E22C2B8
P 12450 3850
F 0 "#PWR024" H 12450 3600 50  0001 C CNN
F 1 "GND" H 12455 3677 50  0000 C CNN
F 2 "" H 12450 3850 50  0001 C CNN
F 3 "" H 12450 3850 50  0001 C CNN
	1    12450 3850
	1    0    0    -1  
$EndComp
Wire Wire Line
	12450 3850 12650 3850
Wire Wire Line
	12650 3850 12650 4050
$Comp
L power:+5V #PWR025
U 1 1 5E22E821
P 13300 3950
F 0 "#PWR025" H 13300 3800 50  0001 C CNN
F 1 "+5V" H 13315 4123 50  0000 C CNN
F 2 "" H 13300 3950 50  0001 C CNN
F 3 "" H 13300 3950 50  0001 C CNN
	1    13300 3950
	1    0    0    -1  
$EndComp
Wire Wire Line
	13300 3950 13300 4050
Wire Wire Line
	13300 4050 13150 4050
$Comp
L power:+3.3V #PWR023
U 1 1 5E231185
P 12200 4150
F 0 "#PWR023" H 12200 4000 50  0001 C CNN
F 1 "+3.3V" H 12215 4323 50  0000 C CNN
F 2 "" H 12200 4150 50  0001 C CNN
F 3 "" H 12200 4150 50  0001 C CNN
	1    12200 4150
	1    0    0    -1  
$EndComp
Wire Wire Line
	12200 4150 12650 4150
NoConn ~ 13150 4150
$Comp
L Connector:USB_B J1
U 1 1 5E2367C4
P 2300 4400
F 0 "J1" H 2355 4867 50  0000 C CNN
F 1 "USB_B" H 2355 4776 50  0000 C CNN
F 2 "Connector_USB:USB_B_OST_USB-B1HSxx_Horizontal" H 2450 4350 50  0001 C CNN
F 3 " ~" H 2450 4350 50  0001 C CNN
	1    2300 4400
	1    0    0    -1  
$EndComp
Text Label 7700 4800 2    50   ~ 0
SWDIO
Text Label 7700 4900 2    50   ~ 0
SWCLK
Connection ~ 3200 4400
Wire Wire Line
	3000 4500 3000 5550
Wire Wire Line
	3000 4500 2600 4500
Connection ~ 3000 4500
Wire Wire Line
	2600 4400 3200 4400
Wire Wire Line
	2600 4200 3075 4200
Text Label 7700 4700 2    50   ~ 0
~RST
Text Label 7700 5100 2    50   ~ 0
BOOT0
Wire Wire Line
	7700 5100 7900 5100
$Comp
L power:+5V #PWR05
U 1 1 5E286E19
P 3700 4850
F 0 "#PWR05" H 3700 4700 50  0001 C CNN
F 1 "+5V" H 3715 5023 50  0000 C CNN
F 2 "" H 3700 4850 50  0001 C CNN
F 3 "" H 3700 4850 50  0001 C CNN
	1    3700 4850
	1    0    0    -1  
$EndComp
$Comp
L power:+5V #PWR021
U 1 1 5E2871C6
P 11900 2200
F 0 "#PWR021" H 11900 2050 50  0001 C CNN
F 1 "+5V" H 11915 2373 50  0000 C CNN
F 2 "" H 11900 2200 50  0001 C CNN
F 3 "" H 11900 2200 50  0001 C CNN
	1    11900 2200
	1    0    0    -1  
$EndComp
$Comp
L power:+5V #PWR028
U 1 1 5E287219
P 13650 2200
F 0 "#PWR028" H 13650 2050 50  0001 C CNN
F 1 "+5V" H 13665 2373 50  0000 C CNN
F 2 "" H 13650 2200 50  0001 C CNN
F 3 "" H 13650 2200 50  0001 C CNN
	1    13650 2200
	1    0    0    -1  
$EndComp
$Comp
L power:+3.3V #PWR019
U 1 1 5E287834
P 11850 5600
F 0 "#PWR019" H 11850 5450 50  0001 C CNN
F 1 "+3.3V" H 11865 5773 50  0000 C CNN
F 2 "" H 11850 5600 50  0001 C CNN
F 3 "" H 11850 5600 50  0001 C CNN
	1    11850 5600
	1    0    0    -1  
$EndComp
$Comp
L power:+3.3V #PWR026
U 1 1 5E28785E
P 13600 5600
F 0 "#PWR026" H 13600 5450 50  0001 C CNN
F 1 "+3.3V" H 13615 5773 50  0000 C CNN
F 2 "" H 13600 5600 50  0001 C CNN
F 3 "" H 13600 5600 50  0001 C CNN
	1    13600 5600
	1    0    0    -1  
$EndComp
$Comp
L Device:C C1
U 1 1 5E287D52
P 4150 3600
F 0 "C1" H 4265 3646 50  0000 L CNN
F 1 "4.7uF" H 4265 3555 50  0000 L CNN
F 2 "Capacitor_SMD:C_0805_2012Metric" H 4188 3450 50  0001 C CNN
F 3 "~" H 4150 3600 50  0001 C CNN
	1    4150 3600
	1    0    0    -1  
$EndComp
$Comp
L Device:C C6
U 1 1 5E287E1B
P 7100 3600
F 0 "C6" H 7215 3646 50  0000 L CNN
F 1 "10nF" H 7215 3555 50  0000 L CNN
F 2 "Capacitor_SMD:C_0402_1005Metric" H 7138 3450 50  0001 C CNN
F 3 "~" H 7100 3600 50  0001 C CNN
	1    7100 3600
	1    0    0    -1  
$EndComp
Wire Wire Line
	4150 3400 4150 3450
Wire Wire Line
	7100 3400 7100 3450
$Comp
L Device:C C2
U 1 1 5E29C269
P 5050 3600
F 0 "C2" H 5165 3646 50  0000 L CNN
F 1 "10nF" H 5165 3555 50  0000 L CNN
F 2 "Capacitor_SMD:C_0402_1005Metric" H 5088 3450 50  0001 C CNN
F 3 "~" H 5050 3600 50  0001 C CNN
	1    5050 3600
	1    0    0    -1  
$EndComp
Wire Wire Line
	5050 3400 5050 3450
$Comp
L Device:C C4
U 1 1 5E29FA48
P 6200 3600
F 0 "C4" H 6315 3646 50  0000 L CNN
F 1 "4.7uF" H 6315 3555 50  0000 L CNN
F 2 "Capacitor_SMD:C_0805_2012Metric" H 6238 3450 50  0001 C CNN
F 3 "~" H 6200 3600 50  0001 C CNN
	1    6200 3600
	1    0    0    -1  
$EndComp
Wire Wire Line
	6200 3400 6200 3450
$Sheet
S 7900 3800 1800 3150
U 5E14EF23
F0 "STM32F072C8Tx" 50
F1 "STM32F072C8Tx.sch" 50
F2 "V_DD" U L 7900 4000 50 
F3 "VDDIO2" U L 7900 4100 50 
F4 "VSS" U L 7900 4200 50 
F5 "BOOT0" I L 7900 5100 50 
F6 "USB_DM" B L 7900 4500 50 
F7 "USB_DP" B L 7900 4400 50 
F8 "PB10" B R 9700 4150 50 
F9 "PB11" B R 9700 4250 50 
F10 "PB12" B R 9700 4350 50 
F11 "PB13" B R 9700 4450 50 
F12 "PB14" B R 9700 4550 50 
F13 "PB15" B R 9700 4650 50 
F14 "PB9" B R 9700 4050 50 
F15 "PB8" B R 9700 3950 50 
F16 "PA0" B R 9700 4900 50 
F17 "PA1" B R 9700 5000 50 
F18 "PA2" B R 9700 5100 50 
F19 "PA3" B R 9700 5200 50 
F20 "PA4" B R 9700 5300 50 
F21 "PA5" B R 9700 5400 50 
F22 "PA6" B R 9700 5500 50 
F23 "PA7" B R 9700 5600 50 
F24 "SWDIO" B L 7900 4800 50 
F25 "SWCLK" B L 7900 4900 50 
F26 "~RST" I L 7900 4700 50 
F27 "PC13" B L 7900 5300 50 
F28 "PC14" B L 7900 5400 50 
F29 "PC15" B L 7900 5500 50 
F30 "PB0" B R 9700 5800 50 
F31 "PB1" B R 9700 5900 50 
F32 "PB2" B L 7900 5600 50 
F33 "PB3" B R 9700 6000 50 
F34 "PB4" B L 7900 5700 50 
F35 "PB5" B L 7900 5800 50 
F36 "PB6" B L 7900 5900 50 
F37 "PB7" B L 7900 6000 50 
F38 "PA15" B L 7900 6400 50 
F39 "PA8" B L 7900 6100 50 
F40 "PA9" B L 7900 6200 50 
F41 "PA10" B L 7900 6300 50 
$EndSheet
Text Label 7700 5300 2    50   ~ 0
PC13
Text Label 7700 5400 2    50   ~ 0
PC14
Text Label 7700 5500 2    50   ~ 0
PC15
Text Label 9900 5800 0    50   ~ 0
PB0
Text Label 9900 5900 0    50   ~ 0
PB1
Text Label 7700 5600 2    50   ~ 0
PB2
Text Label 9900 6000 0    50   ~ 0
PB3
Text Label 7700 5700 2    50   ~ 0
PB4
Text Label 7700 5800 2    50   ~ 0
PB5
Text Label 7700 5900 2    50   ~ 0
PB6
Text Label 7700 6000 2    50   ~ 0
PB7
Text Label 7700 6100 2    50   ~ 0
PA8
Text Label 7700 6200 2    50   ~ 0
PA9
Text Label 7700 6300 2    50   ~ 0
PA10
Text Label 7700 6400 2    50   ~ 0
PA15
Wire Wire Line
	7700 5300 7900 5300
Wire Wire Line
	7900 5400 7700 5400
Wire Wire Line
	7700 5500 7900 5500
Wire Wire Line
	9700 6000 9900 6000
Wire Wire Line
	7700 5600 7900 5600
Wire Wire Line
	7900 5700 7700 5700
Wire Wire Line
	7700 5800 7900 5800
Wire Wire Line
	7900 5900 7700 5900
Wire Wire Line
	7700 6000 7900 6000
Wire Wire Line
	7700 6100 7900 6100
Wire Wire Line
	7900 6200 7700 6200
Wire Wire Line
	7700 6300 7900 6300
Wire Wire Line
	7900 6400 7700 6400
Wire Notes Line
	7600 5200 7450 5200
Wire Notes Line
	7450 6425 7600 6425
Wire Notes Line
	7250 5825 7450 5825
Text Notes 7200 5825 2    50   ~ 0
Unused I/O
Text Label 3450 7550 2    50   ~ 0
PC13
Text Label 3950 7550 0    50   ~ 0
PC14
Text Label 3450 7650 2    50   ~ 0
PC15
Text Label 9950 7950 2    50   ~ 0
PB3
Text Label 3450 7350 2    50   ~ 0
PB4
Text Label 3950 7350 0    50   ~ 0
PB5
Text Label 3450 7450 2    50   ~ 0
PB6
Text Label 3950 7450 0    50   ~ 0
PB7
Text Label 3950 7650 0    50   ~ 0
PA8
Text Label 3450 7750 2    50   ~ 0
PA9
Text Label 3950 7750 0    50   ~ 0
PA10
Text Label 3450 7850 2    50   ~ 0
PA15
Text Label 3950 7850 0    50   ~ 0
BOOT0
$Comp
L Connector_Generic:Conn_02x08_Odd_Even J2
U 1 1 5E30343B
P 3650 7550
F 0 "J2" H 3700 8167 50  0000 C CNN
F 1 "Unused I/O" H 3700 8076 50  0000 C CNN
F 2 "Connector_PinHeader_2.54mm:PinHeader_2x08_P2.54mm_Vertical" H 3650 7550 50  0001 C CNN
F 3 "~" H 3650 7550 50  0001 C CNN
	1    3650 7550
	1    0    0    -1  
$EndComp
$Comp
L power:+3.3V #PWR02
U 1 1 5E312809
P 3100 7950
F 0 "#PWR02" H 3100 7800 50  0001 C CNN
F 1 "+3.3V" H 3115 8123 50  0000 C CNN
F 2 "" H 3100 7950 50  0001 C CNN
F 3 "" H 3100 7950 50  0001 C CNN
	1    3100 7950
	1    0    0    -1  
$EndComp
Wire Wire Line
	3100 7950 3450 7950
$Comp
L power:GND #PWR010
U 1 1 5E317A6D
P 4250 8000
F 0 "#PWR010" H 4250 7750 50  0001 C CNN
F 1 "GND" H 4255 7827 50  0000 C CNN
F 2 "" H 4250 8000 50  0001 C CNN
F 3 "" H 4250 8000 50  0001 C CNN
	1    4250 8000
	1    0    0    -1  
$EndComp
Wire Wire Line
	4250 8000 4250 7950
Wire Wire Line
	4250 7950 3950 7950
Wire Wire Line
	3950 3400 4150 3400
$Comp
L Device:C C3
U 1 1 5E3372A6
P 4600 3600
F 0 "C3" H 4715 3646 50  0000 L CNN
F 1 "1uF" H 4715 3555 50  0000 L CNN
F 2 "Capacitor_SMD:C_0402_1005Metric" H 4638 3450 50  0001 C CNN
F 3 "~" H 4600 3600 50  0001 C CNN
	1    4600 3600
	1    0    0    -1  
$EndComp
Wire Wire Line
	4600 3400 4600 3450
$Comp
L Device:C C5
U 1 1 5E34B584
P 6650 3600
F 0 "C5" H 6765 3646 50  0000 L CNN
F 1 "1uF" H 6765 3555 50  0000 L CNN
F 2 "Capacitor_SMD:C_0402_1005Metric" H 6688 3450 50  0001 C CNN
F 3 "~" H 6650 3600 50  0001 C CNN
	1    6650 3600
	1    0    0    -1  
$EndComp
Wire Wire Line
	6650 3400 6650 3450
Connection ~ 7650 3400
$Comp
L Connector_Generic:Conn_02x03_Odd_Even J3
U 1 1 5E18ECD2
P 5850 7650
F 0 "J3" H 5850 7400 50  0000 C CNN
F 1 "Programming Header" H 5900 7876 50  0000 C CNN
F 2 "Connector_PinHeader_2.54mm:PinHeader_2x03_P2.54mm_Vertical" H 5850 7650 50  0001 C CNN
F 3 "~" H 5850 7650 50  0001 C CNN
	1    5850 7650
	1    0    0    -1  
$EndComp
Text Label 6350 7650 0    50   ~ 0
SWDIO
Text Label 6350 7750 0    50   ~ 0
SWCLK
Text Label 6350 7550 0    50   ~ 0
~RST
Wire Wire Line
	7900 4700 7700 4700
Wire Wire Line
	7700 4800 7900 4800
Wire Wire Line
	7900 4900 7700 4900
Wire Wire Line
	6350 7550 6150 7550
Wire Wire Line
	6350 7650 6150 7650
Wire Wire Line
	6150 7750 6350 7750
$Comp
L power:GND #PWR0105
U 1 1 5E1DC0A9
P 5500 7800
F 0 "#PWR0105" H 5500 7550 50  0001 C CNN
F 1 "GND" H 5505 7627 50  0000 C CNN
F 2 "" H 5500 7800 50  0001 C CNN
F 3 "" H 5500 7800 50  0001 C CNN
	1    5500 7800
	1    0    0    -1  
$EndComp
Wire Wire Line
	5500 7800 5500 7750
Wire Wire Line
	5500 7750 5650 7750
$Comp
L power:+3.3V #PWR0106
U 1 1 5E1E15F2
P 5050 7600
F 0 "#PWR0106" H 5050 7450 50  0001 C CNN
F 1 "+3.3V" H 5065 7773 50  0000 C CNN
F 2 "" H 5050 7600 50  0001 C CNN
F 3 "" H 5050 7600 50  0001 C CNN
	1    5050 7600
	1    0    0    -1  
$EndComp
$Comp
L power:+5V #PWR0107
U 1 1 5E1E16E6
P 5300 7500
F 0 "#PWR0107" H 5300 7350 50  0001 C CNN
F 1 "+5V" H 5315 7673 50  0000 C CNN
F 2 "" H 5300 7500 50  0001 C CNN
F 3 "" H 5300 7500 50  0001 C CNN
	1    5300 7500
	1    0    0    -1  
$EndComp
Wire Wire Line
	5050 7600 5050 7650
Wire Wire Line
	5050 7650 5650 7650
Wire Wire Line
	5650 7550 5300 7550
Wire Wire Line
	5300 7550 5300 7500
$Comp
L Mechanical:MountingHole H1
U 1 1 5E1CF7DA
P 2400 9700
F 0 "H1" H 2500 9746 50  0000 L CNN
F 1 "MountingHole" H 2500 9655 50  0000 L CNN
F 2 "MountingHole:MountingHole_3.2mm_M3" H 2400 9700 50  0001 C CNN
F 3 "~" H 2400 9700 50  0001 C CNN
	1    2400 9700
	1    0    0    -1  
$EndComp
$Comp
L Mechanical:MountingHole H2
U 1 1 5E1CF892
P 2400 9900
F 0 "H2" H 2500 9946 50  0000 L CNN
F 1 "MountingHole" H 2500 9855 50  0000 L CNN
F 2 "MountingHole:MountingHole_3.2mm_M3" H 2400 9900 50  0001 C CNN
F 3 "~" H 2400 9900 50  0001 C CNN
	1    2400 9900
	1    0    0    -1  
$EndComp
$Comp
L Mechanical:MountingHole H3
U 1 1 5E1CF8F0
P 3150 9700
F 0 "H3" H 3250 9746 50  0000 L CNN
F 1 "MountingHole" H 3250 9655 50  0000 L CNN
F 2 "MountingHole:MountingHole_3.2mm_M3" H 3150 9700 50  0001 C CNN
F 3 "~" H 3150 9700 50  0001 C CNN
	1    3150 9700
	1    0    0    -1  
$EndComp
$Comp
L Mechanical:MountingHole H4
U 1 1 5E1CF952
P 3150 9900
F 0 "H4" H 3250 9946 50  0000 L CNN
F 1 "MountingHole" H 3250 9855 50  0000 L CNN
F 2 "MountingHole:MountingHole_3.2mm_M3" H 3150 9900 50  0001 C CNN
F 3 "~" H 3150 9900 50  0001 C CNN
	1    3150 9900
	1    0    0    -1  
$EndComp
Connection ~ 4150 3400
Wire Wire Line
	5800 3700 5800 4000
Wire Wire Line
	6100 3400 6200 3400
Connection ~ 6200 3400
Wire Wire Line
	6200 3400 6650 3400
Connection ~ 6650 3400
Wire Wire Line
	6650 3400 7100 3400
Connection ~ 7100 3400
Wire Wire Line
	7100 3400 7650 3400
Wire Wire Line
	4150 3400 4600 3400
Connection ~ 4600 3400
Wire Wire Line
	4600 3400 5050 3400
Connection ~ 5050 3400
Wire Wire Line
	5050 3400 5500 3400
Wire Wire Line
	4150 3750 4150 4000
Wire Wire Line
	4150 4000 4600 4000
Connection ~ 5800 4000
Wire Wire Line
	5800 4000 5800 4050
Wire Wire Line
	5800 4000 6200 4000
Wire Wire Line
	7100 4000 7100 3750
Wire Wire Line
	6650 3750 6650 4000
Connection ~ 6650 4000
Wire Wire Line
	6650 4000 7100 4000
Wire Wire Line
	6200 3750 6200 4000
Connection ~ 6200 4000
Wire Wire Line
	6200 4000 6650 4000
Wire Wire Line
	5050 3750 5050 4000
Connection ~ 5050 4000
Wire Wire Line
	5050 4000 5800 4000
Wire Wire Line
	4600 3750 4600 4000
Connection ~ 4600 4000
Wire Wire Line
	4600 4000 5050 4000
Wire Wire Line
	3200 4400 7900 4400
Wire Wire Line
	3000 4500 7900 4500
Text Notes 2750 9500 0    50   ~ 0
Screw holes
Wire Notes Line
	2200 9350 2200 10050
Wire Notes Line
	2200 10050 3850 10050
Wire Notes Line
	3850 10050 3850 9350
Wire Notes Line
	3850 9350 2200 9350
$Comp
L Device:C_Small C15
U 1 1 5E1FC8AA
P 12475 8175
F 0 "C15" H 12567 8221 50  0000 L CNN
F 1 "1uF" H 12567 8130 50  0000 L CNN
F 2 "Capacitor_SMD:C_0402_1005Metric" H 12475 8175 50  0001 C CNN
F 3 "~" H 12475 8175 50  0001 C CNN
	1    12475 8175
	1    0    0    -1  
$EndComp
$Comp
L power:+5V #PWR07
U 1 1 5E1FCA22
P 12475 8000
F 0 "#PWR07" H 12475 7850 50  0001 C CNN
F 1 "+5V" H 12490 8173 50  0000 C CNN
F 2 "" H 12475 8000 50  0001 C CNN
F 3 "" H 12475 8000 50  0001 C CNN
	1    12475 8000
	1    0    0    -1  
$EndComp
Wire Wire Line
	12475 8000 12475 8075
$Comp
L power:GND #PWR08
U 1 1 5E204125
P 12475 8350
F 0 "#PWR08" H 12475 8100 50  0001 C CNN
F 1 "GND" H 12480 8177 50  0000 C CNN
F 2 "" H 12475 8350 50  0001 C CNN
F 3 "" H 12475 8350 50  0001 C CNN
	1    12475 8350
	1    0    0    -1  
$EndComp
Wire Wire Line
	12475 8350 12475 8275
$Comp
L Device:C_Small C16
U 1 1 5E20BC2B
P 12825 8175
F 0 "C16" H 12917 8221 50  0000 L CNN
F 1 "1uF" H 12917 8130 50  0000 L CNN
F 2 "Capacitor_SMD:C_0402_1005Metric" H 12825 8175 50  0001 C CNN
F 3 "~" H 12825 8175 50  0001 C CNN
	1    12825 8175
	1    0    0    -1  
$EndComp
Wire Wire Line
	12825 8000 12825 8075
$Comp
L power:GND #PWR013
U 1 1 5E20BC38
P 12825 8350
F 0 "#PWR013" H 12825 8100 50  0001 C CNN
F 1 "GND" H 12830 8177 50  0000 C CNN
F 2 "" H 12825 8350 50  0001 C CNN
F 3 "" H 12825 8350 50  0001 C CNN
	1    12825 8350
	1    0    0    -1  
$EndComp
Wire Wire Line
	12825 8350 12825 8275
$Comp
L power:+3.3V #PWR012
U 1 1 5E21365C
P 12825 8000
F 0 "#PWR012" H 12825 7850 50  0001 C CNN
F 1 "+3.3V" H 12840 8173 50  0000 C CNN
F 2 "" H 12825 8000 50  0001 C CNN
F 3 "" H 12825 8000 50  0001 C CNN
	1    12825 8000
	1    0    0    -1  
$EndComp
Text Notes 12350 7725 0    50   ~ 0
Decoupling caps for\nthe output connector
Wire Notes Line
	12200 7550 12200 8575
Wire Notes Line
	12200 8575 13250 8575
Wire Notes Line
	13250 8575 13250 7550
Wire Notes Line
	13250 7550 12200 7550
$Comp
L Interrogizer-rescue:LED_RBAG-Device D1
U 1 1 5E23504F
P 10900 7750
F 0 "D1" H 10900 8247 50  0000 C CNN
F 1 "LED_RBAG" H 10900 8156 50  0000 C CNN
F 2 "rounded-pads-footprints:LED_2020" H 10900 7750 50  0001 C CNN
F 3 "~" H 10900 7750 50  0001 C CNN
	1    10900 7750
	1    0    0    -1  
$EndComp
Wire Notes Line
	7450 5200 7450 6425
Wire Wire Line
	9900 5900 9700 5900
Wire Wire Line
	9700 5800 9900 5800
$Comp
L Device:R R3
U 1 1 5E291267
P 10200 7550
F 0 "R3" V 10125 7550 50  0000 C CNN
F 1 "200R" V 10200 7550 50  0000 C CNN
F 2 "Resistor_SMD:R_0402_1005Metric" V 10130 7550 50  0001 C CNN
F 3 "~" H 10200 7550 50  0001 C CNN
	1    10200 7550
	0    1    1    0   
$EndComp
Text Label 9950 7550 2    50   ~ 0
PB0
Text Label 9950 7750 2    50   ~ 0
PB1
Text Label 3950 7250 0    50   ~ 0
PB2
$Comp
L Device:R R4
U 1 1 5E2A79D2
P 10200 7750
F 0 "R4" V 10125 7750 50  0000 C CNN
F 1 "75R" V 10200 7750 50  0000 C CNN
F 2 "Resistor_SMD:R_0402_1005Metric" V 10130 7750 50  0001 C CNN
F 3 "~" H 10200 7750 50  0001 C CNN
	1    10200 7750
	0    1    1    0   
$EndComp
$Comp
L Device:R R5
U 1 1 5E2A7A64
P 10200 7950
F 0 "R5" V 10125 7950 50  0000 C CNN
F 1 "100R" V 10200 7950 50  0000 C CNN
F 2 "Resistor_SMD:R_0402_1005Metric" V 10130 7950 50  0001 C CNN
F 3 "~" H 10200 7950 50  0001 C CNN
	1    10200 7950
	0    1    1    0   
$EndComp
Text Label 10400 7550 0    50   ~ 0
LED_R
Text Label 10400 7750 0    50   ~ 0
LED_G
Text Label 10400 7950 0    50   ~ 0
LED_B
Wire Wire Line
	9950 7750 10050 7750
Wire Wire Line
	9950 7950 10050 7950
Wire Wire Line
	9950 7550 10050 7550
Wire Wire Line
	10350 7550 10700 7550
Wire Wire Line
	10700 7750 10350 7750
Wire Wire Line
	10350 7950 10700 7950
$Comp
L power:+3.3V #PWR015
U 1 1 5E2E97CB
P 11200 7675
F 0 "#PWR015" H 11200 7525 50  0001 C CNN
F 1 "+3.3V" H 11215 7848 50  0000 C CNN
F 2 "" H 11200 7675 50  0001 C CNN
F 3 "" H 11200 7675 50  0001 C CNN
	1    11200 7675
	1    0    0    -1  
$EndComp
Wire Wire Line
	11200 7675 11200 7750
Wire Wire Line
	11200 7750 11100 7750
Wire Notes Line
	9975 5700 10075 5700
Wire Notes Line
	10075 5700 10075 6025
Wire Notes Line
	10075 6025 9975 6025
Wire Notes Line
	10075 5875 10225 5875
Text Notes 10250 5950 0    50   ~ 0
Obligatory \nRGB LED
$Comp
L power:GND #PWR014
U 1 1 5E30B9D0
P 3100 7275
F 0 "#PWR014" H 3100 7025 50  0001 C CNN
F 1 "GND" H 3105 7102 50  0000 C CNN
F 2 "" H 3100 7275 50  0001 C CNN
F 3 "" H 3100 7275 50  0001 C CNN
	1    3100 7275
	1    0    0    -1  
$EndComp
Wire Wire Line
	3100 7275 3100 7250
Wire Wire Line
	3100 7250 3450 7250
$Comp
L Device:Polyfuse_Small F1
U 1 1 5E25C184
P 3175 4200
F 0 "F1" V 2970 4200 50  0000 C CNN
F 1 "Polyfuse_Small" V 3061 4200 50  0000 C CNN
F 2 "Fuse:Fuse_1206_3216Metric" H 3225 4000 50  0001 L CNN
F 3 "~" H 3175 4200 50  0001 C CNN
	1    3175 4200
	0    1    1    0   
$EndComp
Wire Wire Line
	3900 4200 3950 4200
Wire Wire Line
	3275 4200 3700 4200
Text Label 3275 4200 0    50   ~ 0
VBUS_fused
$EndSCHEMATC
