(module LED_2020 (layer F.Cu) (tedit 5E26E621)
  (attr smd)
  (fp_text reference REF** (at 0 2.1) (layer F.SilkS)
    (effects (font (size 1 1) (thickness 0.15)))
  )
  (fp_text value LED_2020 (at 0 -1.8) (layer F.Fab)
    (effects (font (size 1 1) (thickness 0.15)))
  )
  (fp_line (start -1.1 -1.3) (end 1 -1.3) (layer F.SilkS) (width 0.15))
  (fp_line (start 1.5 1.3) (end -1.1 1.3) (layer F.SilkS) (width 0.15))
  (fp_line (start 1.5 0.7) (end 1.5 1.3) (layer F.SilkS) (width 0.15))
  (fp_line (start 1.05 -1.05) (end 1.05 1.05) (layer F.CrtYd) (width 0.15))
  (fp_line (start -1.05 -1.05) (end 1.05 -1.05) (layer F.CrtYd) (width 0.15))
  (fp_line (start -1.05 1.05) (end 1.05 1.05) (layer F.CrtYd) (width 0.15))
  (fp_line (start -1.05 -1.05) (end -1.05 1.05) (layer F.CrtYd) (width 0.15))
  (pad 1 smd roundrect (at 0.85 0.55) (size 0.8 0.7) (layers F.Cu F.Paste F.Mask) (roundrect_rratio 0.25))
  (pad 4 smd roundrect (at 0.85 -0.55) (size 0.8 0.7) (layers F.Cu F.Paste F.Mask) (roundrect_rratio 0.25))
  (pad 3 smd roundrect (at -0.85 -0.55) (size 0.8 0.7) (layers F.Cu F.Paste F.Mask) (roundrect_rratio 0.25))
  (pad 2 smd roundrect (at -0.85 0.55) (size 0.8 0.7) (layers F.Cu F.Paste F.Mask) (roundrect_rratio 0.25))
)
